Exploration of feed data
…
feed <- feed %>% filter(!(item_code %in% c(2948, 2949)))

Some quick models

Creating quick linear models for every element/item combination. We know that data collection doesnt start in the same year for each item, but once it does start there are no more missing observations. By dropping the missing observations, were training our models only on the years after data collection has started.

feed %>% 
filter(!is.na(production)) %>% 
group_by(year, element, item) %>% 
summarise(production = sum(production)) %>% 
group_by(element, item) %>% 
do(glance(lm(production ~ year, data = .)))

## # A tibble: 203 x 13
## # Groups:   element, item [203]
##    element item    r.squared adj.r.squared  sigma statistic  p.value    df
##    <fct>   <fct>       <dbl>         <dbl>  <dbl>     <dbl>    <dbl> <int>
##  1 Feed    Animal   0.711          0.705  2.73e2   126.    2.33e-15     2
##  2 Feed    Apples   0.465          0.454  1.37e2    44.2   1.93e- 8     2
##  3 Feed    Aquati   0.507          0.497  7.06e1    52.4   2.28e- 9     2
##  4 Feed    Aquati   0.507          0.497  7.06e1    52.4   2.28e- 9     2
##  5 Feed    Bananas   0.520          0.511  2.35e2    55.4   1.10e- 9     2
##  6 Feed    Barley   0.732          0.727  1.01e4   139.    3.33e-16     2
##  7 Feed    Beans     0.785          0.781  3.85e2   187.    1.13e-18     2
##  8 Feed    Bovine   0.664          0.647  1.28e1    39.5   3.92e- 6     2
##  9 Feed    Butter   0.00709       -0.0124 9.32e0     0.364 5.49e- 1     2
## 10 Feed    Cassav   0.890          0.887  6.32e3   411.    4.60e-26     2
## # ... with 193 more rows, and 5 more variables: logLik <dbl>, AIC <dbl>,
## #   BIC <dbl>, deviance <dbl>, df.residual <int>
…
